# BEGIN PLOT
DrawOnly=/REF/ATLAS_2014_I1307243/d14-x01-y01 /ctest/mY_100_mX_600/mY_100_mX_600.yoda/ATLAS_2014_I1307243/d14-x01-y01 /THY/ATLAS_2014_I1307243/d14-x01-y01
Title=$d^2\sigma / d\Delta\phi d\Delta y$ in pb for inclusive events satisfying 1 $< \Delta y \leq$ 2
RatioPlotReference=/REF/ATLAS_2014_I1307243/d14-x01-y01
RatioPlot=1
LogY=1
XLabel=$\Delta\phi / \pi$
ShowZero=0
MainPlot=1
YLabel=$d^2\sigma / d\Delta\phi d\Delta y$ [pb]
Legend=1
RatioPlotYMin=1
# END PLOT

# BEGIN HISTO1D /REF/ATLAS_2014_I1307243/d14-x01-y01
IsRef=1
LineColor=green
Path=/REF/ATLAS_2014_I1307243/d14-x01-y01
Title=~
# xlow	 xhigh	 val	 errminus	 errplus
5.000000e-01	7.500000e-01	6.940000e+04	8.762865e+03	8.620545e+03
7.500000e-01	8.500000e-01	4.270000e+05	4.973912e+04	5.161095e+04
8.500000e-01	9.000000e-01	1.120000e+06	1.162239e+05	1.221065e+05
9.000000e-01	9.400000e-01	2.100000e+06	2.037474e+05	2.174167e+05
9.400000e-01	9.700000e-01	3.520000e+06	3.307476e+05	3.553379e+05
9.700000e-01	1.000000e+00	4.920000e+06	4.533233e+05	4.898857e+05
# END HISTO1D


# BEGIN HISTO1D /REF/ATLAS_2014_I1307243/d14-x01-y01
ConnectBins=0
ErrorBars=1
IsRef=1
Path=/REF/ATLAS_2014_I1307243/d14-x01-y01
PolyMarker=*
Title=Data
# xlow	 xhigh	 val	 errminus	 errplus
5.000000e-01	7.500000e-01	6.940000e+04	8.762865e+03	8.620545e+03
7.500000e-01	8.500000e-01	4.270000e+05	4.973912e+04	5.161095e+04
8.500000e-01	9.000000e-01	1.120000e+06	1.162239e+05	1.221065e+05
9.000000e-01	9.400000e-01	2.100000e+06	2.037474e+05	2.174167e+05
9.400000e-01	9.700000e-01	3.520000e+06	3.307476e+05	3.553379e+05
9.700000e-01	1.000000e+00	4.920000e+06	4.533233e+05	4.898857e+05
# END HISTO1D


# BEGIN HISTO1D /ctest/mY_100_mX_600/mY_100_mX_600.yoda/ATLAS_2014_I1307243/d14-x01-y01
LineColor=red
Path=/ctest/mY_100_mX_600/mY_100_mX_600.yoda/ATLAS_2014_I1307243/d14-x01-y01
Title=[1]  0.02
# xlow	 xhigh	 val	 errminus	 errplus
5.000000e-01	7.500000e-01	6.958430e+04	8.790039e+03	8.647719e+03
7.500000e-01	8.500000e-01	4.279616e+05	4.983726e+04	5.170909e+04
8.500000e-01	9.000000e-01	1.121723e+06	1.164097e+05	1.222923e+05
9.000000e-01	9.400000e-01	2.102279e+06	2.039863e+05	2.176556e+05
9.400000e-01	9.700000e-01	3.522704e+06	3.310481e+05	3.556384e+05
9.700000e-01	1.000000e+00	4.923973e+06	4.536875e+05	4.902499e+05
# END HISTO1D

