# BEGIN PLOT
DrawOnly=/REF/ATLAS_2014_I1307243/d16-x01-y01 /ctest/mY_100_mX_1100/mY_100_mX_1100.yoda/ATLAS_2014_I1307243/d16-x01-y01 /THY/ATLAS_2014_I1307243/d16-x01-y01
Title=$d^2\sigma / d\Delta\phi d\Delta y$ in pb for inclusive events satisfying 3 $< \Delta y \leq$ 4
RatioPlotReference=/REF/ATLAS_2014_I1307243/d16-x01-y01
RatioPlot=1
LogY=1
XLabel=$\Delta\phi / \pi$
ShowZero=0
MainPlot=1
YLabel=$d^2\sigma / d\Delta\phi d\Delta y$ [pb]
Legend=1
RatioPlotYMin=1
# END PLOT

# BEGIN HISTO1D /REF/ATLAS_2014_I1307243/d16-x01-y01
IsRef=1
LineColor=green
Path=/REF/ATLAS_2014_I1307243/d16-x01-y01
Title=~
# xlow	 xhigh	 val	 errminus	 errplus
5.000000e-01	7.500000e-01	2.320000e+04	3.894740e+03	5.028350e+03
7.500000e-01	8.500000e-01	1.360000e+05	2.050927e+04	2.089545e+04
8.500000e-01	9.000000e-01	3.120000e+05	4.372185e+04	4.321308e+04
9.000000e-01	9.400000e-01	5.160000e+05	6.879666e+04	6.772068e+04
9.400000e-01	9.700000e-01	7.810000e+05	1.006846e+05	9.946421e+04
9.700000e-01	1.000000e+00	1.030000e+06	1.287789e+05	1.284835e+05
# END HISTO1D


# BEGIN HISTO1D /REF/ATLAS_2014_I1307243/d16-x01-y01
ConnectBins=0
ErrorBars=1
IsRef=1
Path=/REF/ATLAS_2014_I1307243/d16-x01-y01
PolyMarker=*
Title=Data
# xlow	 xhigh	 val	 errminus	 errplus
5.000000e-01	7.500000e-01	2.320000e+04	3.894740e+03	5.028350e+03
7.500000e-01	8.500000e-01	1.360000e+05	2.050927e+04	2.089545e+04
8.500000e-01	9.000000e-01	3.120000e+05	4.372185e+04	4.321308e+04
9.000000e-01	9.400000e-01	5.160000e+05	6.879666e+04	6.772068e+04
9.400000e-01	9.700000e-01	7.810000e+05	1.006846e+05	9.946421e+04
9.700000e-01	1.000000e+00	1.030000e+06	1.287789e+05	1.284835e+05
# END HISTO1D


# BEGIN HISTO1D /ctest/mY_100_mX_1100/mY_100_mX_1100.yoda/ATLAS_2014_I1307243/d16-x01-y01
LineColor=red
Path=/ctest/mY_100_mX_1100/mY_100_mX_1100.yoda/ATLAS_2014_I1307243/d16-x01-y01
Title=[1]  0.01
# xlow	 xhigh	 val	 errminus	 errplus
5.000000e-01	7.500000e-01	2.323222e+04	3.906131e+03	5.039741e+03
7.500000e-01	8.500000e-01	1.361007e+05	2.054111e+04	2.092729e+04
8.500000e-01	9.000000e-01	3.121208e+05	4.377117e+04	4.326240e+04
9.000000e-01	9.400000e-01	5.161259e+05	6.885294e+04	6.777696e+04
9.400000e-01	9.700000e-01	7.811007e+05	1.007427e+05	9.952234e+04
9.700000e-01	1.000000e+00	1.030067e+06	1.288264e+05	1.285310e+05
# END HISTO1D

