# BEGIN PLOT
DrawOnly=/REF/ATLAS_2014_I1307243/d21-x01-y01 /ctest/mY_1100_mX_1600/mY_1100_mX_1600.yoda/ATLAS_2014_I1307243/d21-x01-y01 /THY/ATLAS_2014_I1307243/d21-x01-y01
Title=$d^2\sigma / d\Delta\phi d\Delta y$ in pb for gap events satisfying 0 $< \Delta y \leq$ 1
RatioPlotReference=/REF/ATLAS_2014_I1307243/d21-x01-y01
RatioPlot=1
LogY=1
XLabel=$\Delta\phi / \pi$
ShowZero=0
MainPlot=1
YLabel=$d^2\sigma / d\Delta\phi d\Delta y$ [pb]
Legend=1
RatioPlotYMin=1
# END PLOT

# BEGIN HISTO1D /REF/ATLAS_2014_I1307243/d21-x01-y01
IsRef=1
LineColor=green
Path=/REF/ATLAS_2014_I1307243/d21-x01-y01
Title=~
# xlow	 xhigh	 val	 errminus	 errplus
5.000000e-01	7.500000e-01	5.550000e+04	9.491623e+03	8.775631e+03
7.500000e-01	8.500000e-01	4.010000e+05	4.565370e+04	4.714870e+04
8.500000e-01	9.000000e-01	1.060000e+06	1.074430e+05	1.143722e+05
9.000000e-01	9.400000e-01	2.110000e+06	2.027042e+05	2.169239e+05
9.400000e-01	9.700000e-01	3.700000e+06	3.451174e+05	3.703404e+05
9.700000e-01	1.000000e+00	5.470000e+06	5.005956e+05	5.372793e+05
# END HISTO1D


# BEGIN HISTO1D /REF/ATLAS_2014_I1307243/d21-x01-y01
ConnectBins=0
ErrorBars=1
IsRef=1
Path=/REF/ATLAS_2014_I1307243/d21-x01-y01
PolyMarker=*
Title=Data
# xlow	 xhigh	 val	 errminus	 errplus
5.000000e-01	7.500000e-01	5.550000e+04	9.491623e+03	8.775631e+03
7.500000e-01	8.500000e-01	4.010000e+05	4.565370e+04	4.714870e+04
8.500000e-01	9.000000e-01	1.060000e+06	1.074430e+05	1.143722e+05
9.000000e-01	9.400000e-01	2.110000e+06	2.027042e+05	2.169239e+05
9.400000e-01	9.700000e-01	3.700000e+06	3.451174e+05	3.703404e+05
9.700000e-01	1.000000e+00	5.470000e+06	5.005956e+05	5.372793e+05
# END HISTO1D


# BEGIN HISTO1D /ctest/mY_1100_mX_1600/mY_1100_mX_1600.yoda/ATLAS_2014_I1307243/d21-x01-y01
LineColor=red
Path=/ctest/mY_1100_mX_1600/mY_1100_mX_1600.yoda/ATLAS_2014_I1307243/d21-x01-y01
Title=[6]  0.00
# xlow	 xhigh	 val	 errminus	 errplus
5.000000e-01	7.500000e-01	5.550019e+04	9.491640e+03	8.775648e+03
7.500000e-01	8.500000e-01	4.010010e+05	4.565376e+04	4.714876e+04
8.500000e-01	9.000000e-01	1.060002e+06	1.074431e+05	1.143723e+05
9.000000e-01	9.400000e-01	2.110005e+06	2.027044e+05	2.169241e+05
9.400000e-01	9.700000e-01	3.700011e+06	3.451178e+05	3.703408e+05
9.700000e-01	1.000000e+00	5.470034e+06	5.005963e+05	5.372800e+05
# END HISTO1D

