# BEGIN PLOT
DrawOnly=/REF/ATLAS_2014_I1307243/d27-x01-y01 /ctest/mY_1600_mX_100/mY_1600_mX_100.yoda/ATLAS_2014_I1307243/d27-x01-y01 /THY/ATLAS_2014_I1307243/d27-x01-y01
Title=$d^2\sigma / d\Delta\phi d\Delta y$ in pb for gap events satisfying 6 $< \Delta y \leq$ 7
RatioPlotReference=/REF/ATLAS_2014_I1307243/d27-x01-y01
RatioPlot=1
LogY=1
XLabel=$\Delta\phi / \pi$
ShowZero=0
MainPlot=1
YLabel=$d^2\sigma / d\Delta\phi d\Delta y$ [pb]
Legend=1
RatioPlotYMin=1
# END PLOT

# BEGIN HISTO1D /REF/ATLAS_2014_I1307243/d27-x01-y01
IsRef=1
LineColor=green
Path=/REF/ATLAS_2014_I1307243/d27-x01-y01
Title=~
# xlow	 xhigh	 val	 errminus	 errplus
5.000000e-01	7.500000e-01	0.000000e+00	0.000000e+00	0.000000e+00
7.500000e-01	8.500000e-01	2.620000e+02	1.488321e+02	1.232315e+02
8.500000e-01	9.000000e-01	8.280000e+02	3.984922e+02	3.494353e+02
9.000000e-01	9.400000e-01	1.300000e+03	4.281857e+02	3.677499e+02
9.400000e-01	9.700000e-01	4.280000e+03	1.726818e+03	1.668293e+03
9.700000e-01	1.000000e+00	3.920000e+03	1.178079e+03	1.185194e+03
# END HISTO1D


# BEGIN HISTO1D /REF/ATLAS_2014_I1307243/d27-x01-y01
ConnectBins=0
ErrorBars=1
IsRef=1
Path=/REF/ATLAS_2014_I1307243/d27-x01-y01
PolyMarker=*
Title=Data
# xlow	 xhigh	 val	 errminus	 errplus
5.000000e-01	7.500000e-01	0.000000e+00	0.000000e+00	0.000000e+00
7.500000e-01	8.500000e-01	2.620000e+02	1.488321e+02	1.232315e+02
8.500000e-01	9.000000e-01	8.280000e+02	3.984922e+02	3.494353e+02
9.000000e-01	9.400000e-01	1.300000e+03	4.281857e+02	3.677499e+02
9.400000e-01	9.700000e-01	4.280000e+03	1.726818e+03	1.668293e+03
9.700000e-01	1.000000e+00	3.920000e+03	1.178079e+03	1.185194e+03
# END HISTO1D


# BEGIN HISTO1D /ctest/mY_1600_mX_100/mY_1600_mX_100.yoda/ATLAS_2014_I1307243/d27-x01-y01
LineColor=red
Path=/ctest/mY_1600_mX_100/mY_1600_mX_100.yoda/ATLAS_2014_I1307243/d27-x01-y01
Title=[3]  0.00
# xlow	 xhigh	 val	 errminus	 errplus
5.000000e-01	7.500000e-01	0.000000e+00	0.000000e+00	0.000000e+00
7.500000e-01	8.500000e-01	2.620000e+02	1.488321e+02	1.232315e+02
8.500000e-01	9.000000e-01	8.280011e+02	3.984933e+02	3.494364e+02
9.000000e-01	9.400000e-01	1.300001e+03	4.281871e+02	3.677513e+02
9.400000e-01	9.700000e-01	4.280006e+03	1.726821e+03	1.668296e+03
9.700000e-01	1.000000e+00	3.920000e+03	1.178079e+03	1.185194e+03
# END HISTO1D

